Place,Name,Sex,Equipment,Division,BodyweightKg,WeightClassKg,Squat1Kg,Squat2Kg,Squat3Kg,Best3SquatKg,Bench1Kg,Bench2Kg,Bench3Kg,Bench4Kg,Best3BenchKg,Deadlift1Kg,Deadlift2Kg,Deadlift3Kg,Deadlift4Kg,Best3DeadliftKg,TotalKg,Event,Team,BirthDate,Age
1,Emilia Kedzia,F,Raw,J23,51.35,60,90,95,100,100,67.5,72.5,-75,,72.5,90,97.5,105,,105,277.5,SBD,PowerliftingBears Team,,
2,Natalia Głośnicka,F,Raw,J23,58.6,60,95,102.5,107.5,107.5,-72.5,72.5,75,,75,105,112.5,-117.5,,112.5,295,SBD,Podsztanga.pl,,
3,Aleksandra Nolbert,F,Raw,J23,58.6,60,90,-95,97.5,97.5,42.5,45,47.5,,47.5,130,137.5,140,,140,285,SBD,TeamOlo,,
4,Natalia Nocon,F,Raw,J23,58.35,60,80,85,-90,85,50,52.5,-55,,52.5,125,132.5,-140,,132.5,270,SBD,Mental Powerlifting Club,,
5,Ewa Matuszka,F,Raw,J23,56.5,60,90,95,100,100,47.5,50,52.5,,52.5,92.5,100,110,,110,262.5,SBD,,,
6,Dagmara Walencka,F,Raw,J23,58.35,60,95,100,-105,100,45,-50,-50,,45,110,120,-125,,120,265,SBD,Mental Powerlifting Club,,
7,Emilia Matrejek,F,Raw,J23,53.3,60,72.5,75,-77.5,75,40,45,-47.5,,45,107.5,115,120,,120,240,SBD,KS Team Wrocław,,
1,Adrianna Borowczyk,F,Raw,J23,64.6,60+,140,150,-160,150,70,77.5,80,,80,140,150,160,,160,390,SBD,Sportatut Krobia,,
2,Anna Piasecka,F,Raw,J23,65.75,60+,115,120,-125,120,57.5,62.5,65,,65,150,-160,-160,,150,335,SBD,Zacznij Dźwigać,2001-10-17,
3,Julia Garstka,F,Raw,J23,65.4,60+,100,107.5,-112.5,107.5,50,55,-60,,55,145,152.5,-162.5,,152.5,315,SBD,,,
4,Aleksandra Kukotko,F,Raw,J23,64.25,60+,100,110,-115,110,42.5,-50,50,,50,120,132.5,140,,140,300,SBD,,,
1,Martyna Piątkowska,F,Raw,J23,73.5,60+,145,-152.5,-155,145,65,70,-75,,70,150,160,170,-175.5,170,385,SBD,Wredoty Jaroty,,
2,Paulina Kozioł,F,Raw,J23,69.95,60+,90,95,100,100,50,55,57.5,,57.5,120,130,-137.5,,130,287.5,SBD,,,
3,Natalia Misiewicz,F,Raw,J23,67.9,60+,82.5,87.5,92.5,92.5,40,-45,45,,45,92.5,100,105,,105,242.5,SBD,Tribe Barbell,,
1,Dominika Michalska,F,Raw,MPF,70.95,75,160,170,-177.5,170,70,75,77.5,,77.5,170,180,182.5,,182.5,430,SBD,Studio Sylwetki Kwidzyn,,
2,Klaudia Łącz,F,Raw,MPF,68.65,75,160,-167.5,-167.5,160,85,-90,-90,,85,170,-172.5,-185,,170,415,SBD,Potwory Tybory,,
1,Anastasiia Yarova,F,Raw,T16,67.1,67.5,-72.5,72.5,80,80,42.5,47.5,-50,,47.5,90,95,102.5,,102.5,230,SBD,,,
2,Magdalena Górkowska,F,Raw,T16,67.3,67.5,75,82.5,-87.5,82.5,40,45,-50,,45,90,100,-105,,100,227.5,SBD,Port Siły,,
1,Martyna Tarsa,F,Raw,T16,74.05,75,-120,-120,120,120,55,60,-65,,60,110,122.5,127.5,,127.5,307.5,SBD,,,
1,Marcelina Grochal,F,Raw,T16,81.55,75+,85,90,95,95,47.5,52.5,-55,,52.5,95,102.5,-107.5,,102.5,250,SBD,Valhalla Lifters,,
1,Anna Pilguj,F,Raw,T19,53,56,80,85,90,90,50,55,-57.5,,55,-120,125,132.5,135,132.5,277.5,SBD,KS Team Wrocław,,
2,Nadia Pabis,F,Raw,T19,51.75,56,70,77.5,85,85,40,45,-50,,45,105,112.5,120,-125,120,250,SBD,Mental Powerlifting Club,,
1,Julia Bandurska,F,Raw,T19,56.95,60,100,105,107.5,107.5,-55,55,60,,60,110,120,-130,,120,287.5,SBD,,,
1,Malgorzata Nadajczyk,F,Raw,T19,62.8,67.5,95,102.5,-107.5,102.5,45,47.5,50,,50,112.5,117.5,122.5,,122.5,275,SBD,,,
2,Hanna Jóźwiak,F,Raw,T19,63.65,67.5,85,90,-95,90,42.5,45,-50,,45,105,115,-125,,115,250,SBD,,,
3,Angelika Kaczmarek,F,Raw,T19,67.05,67.5,87.5,-92.5,95,95,40,-45,-45,,40,100,112.5,-120,,112.5,247.5,SBD,,,
1,Zuzanna Mazur,F,Raw,T19,71.8,75,145,155,165,165,80,85,90,,90,150,162.5,175,,175,430,SBD,,,
2,Nina Bartl,F,Raw,T19,70.85,75,-140,140,145,145,70,-77.5,-77.5,,70,165,-175,-175,,165,380,SBD,,,
1,Lena Damek,F,Raw,T19,77.9,75+,107.5,115,-120,115,55,60,-62.5,,60,130,140,150,,150,325,SBD,,,
1,Paula Wasilewska,F,Raw,Open,54.45,56,120,130,-135,130,75,80,81,,81,145,-152.5,152.5,,152.5,363.5,SBD,Wola Mocy,,
2,Sylwia Karczmarczyk,F,Raw,Open,53.6,56,120,-130,130,130,65,70,72.5,,72.5,150,157.5,160,,160,362.5,SBD,CTF Kielce,,
3,Angelika Karczmarczyk,F,Raw,Open,52,56,110,-120,120,120,55,60,65,,65,150,160,-167.5,,160,345,SBD,CTF Kielce,,
4,Hanna Opiołka,F,Raw,Open,55.3,56,107.5,112.5,-115,112.5,65,70,-72.5,,70,145,152.5,-157.5,,152.5,335,SBD,PowerliftingBears Team,,
5,Paulina Glanc,F,Raw,Open,50.3,56,95,100,105,105,57.5,62.5,-65,,62.5,130,140,-150,,140,307.5,SBD,PZWA,,
6,Anna Pilguj,F,Raw,Open,53,56,80,85,90,90,50,55,-57.5,,55,-120,125,132.5,,132.5,277.5,SBD,KS Team Wrocław,,
7,Nadia Pabis,F,Raw,Open,51.75,56,70,77.5,85,85,40,45,-50,,45,105,112.5,130,,130,260,SBD,Mental Powerlifting Club,,
1,Ewelina Puchalska,F,Raw,Open,59.5,60,-120,120,-125,120,72.5,77.5,80,,80,150,160,170,,170,370,SBD,,,
2,Julia Bruś,F,Raw,Open,59.55,60,122.5,130,-135,130,67.5,70,72.5,,72.5,140,150,-157.5,,150,352.5,SBD,,,
3,Karolina Starzyk,F,Raw,Open,58.6,60,112.5,117.5,120,120,60,62.5,-65,,62.5,135,142.5,150,,150,332.5,SBD,Wójciklifting Team,,
4,Julia Bandurska,F,Raw,Open,56.95,60,100,105,107.5,107.5,-55,55,60,,60,110,120,-130,,120,287.5,SBD,,,
1,Aleksandra Szymczykowska,F,Raw,Open,66.45,67.5,150,-160,167.5,167.5,120,125,-130,,125,180,190,200,,200,492.5,SBD,Wola Mocy,,
2,Adrianna Borowczyk,F,Raw,Open,64.6,67.5,140,150,-160,150,70,77.5,80,,80,140,150,160,,160,390,SBD,,,
3,Sylwia Markut,F,Raw,Open,65.05,67.5,120,125,130,130,67.5,70,-72.5,,70,150,155,160,,160,360,SBD,Valhalla Lifters,,
4,Dagmara Rybak,F,Raw,Open,65.65,67.5,125,130,-135,130,62.5,67.5,70,,70,137.5,145,157.5,,157.5,357.5,SBD,Silny team,,
5,Dominika Sanowska,F,Raw,Open,62.1,67.5,112.5,115,-120,115,72.5,75,77.5,,77.5,150,155,160,,160,352.5,SBD,The Spot,,
6,Miklós Marcellina,F,Raw,Open,66.4,67.5,90,100,102.5,102.5,45,52.5,-55,,52.5,100,115,-120,,115,270,SBD,,,
1,Elwira Rak,F,Raw,Open,74.45,75,155,162.5,167.5,167.5,90,-95,95,97.5,95,165,175,180,,180,442.5,SBD,PowerliftingBears Team,,
2,Dominika Michalska,F,Raw,Open,70.95,75,160,170,-177.5,170,70,75,77.5,,77.5,170,180,182.5,,182.5,430,SBD,Studio Sylwetki Kwidzyn,,
3,Zuzanna Mazur,F,Raw,Open,71.8,75,145,155,165,165,80,85,90,,90,150,162.5,175,,175,430,SBD,,,
4,Klaudia Łącz,F,Raw,Open,68.65,75,160,-167.5,-167.5,160,85,-90,-90,,85,170,-172.5,-185,,170,415,SBD,Potwory Tybory,,
5,Agata Kwiatkowska,F,Raw,Open,73,75,120,130,140,140,80,85,-90,,85,-160,167.5,-175,,167.5,392.5,SBD,Wola Mocy,,
6,Martyna Piątkowska,F,Raw,Open,73.5,75,145,-152.5,-155,145,65,70,-75,,70,150,160,170,,170,385,SBD,Wredoty Jaroty,,
7,Paulina Materka,F,Raw,Open,74.3,75,122.5,-130,130,130,72.5,77.5,82.5,,82.5,132.5,140,-147.5,,140,352.5,SBD,PowerliftingBears Team,,
8,Małgorzata Luckner,F,Raw,Open,73.5,75,95,105,115,115,85,92.5,-100,,92.5,140,-155,,,140,347.5,SBD,A-GAME,,
9,Karolina Warchał,F,Raw,Open,72.4,75,112.5,122.5,-130,122.5,60,65,-72.5,,65,130,137.5,145,,145,332.5,SBD,Tribe Barbell,,
10,Karolina Pempera,F,Raw,Open,69.3,75,100,-107.5,-107.5,100,52.5,55,-57.5,,55,112.5,120,-130,,120,275,SBD,Kotłownia,,
1,Katarzyna Kamieńska,F,Raw,Open,83.75,75+,120,-130,-130,120,95,-97.5,-97.5,,95,150,155,160,,160,375,SBD,Wola Mocy,,
2,Lena Damek,F,Raw,Open,77.9,75+,107.5,115,-120,115,55,60,-62.5,,60,130,140,150,,150,325,SBD,,,
DQ,Martyna Pierz-Bielecka,F,Raw,Open,80.05,75+,-117.5,-117.5,-120,,57.5,60,-62.5,,60,130,135,137.5,,137.5,,SBD,,,
1,Mónika Bazsó,F,Raw,M40,80.55,75+,160,170,-180,170,107.5,115,120,,120,185,195,205,,205,495,SBD,,,
2,Joanna Piotrowska,F,Raw,M40,84.6,75+,80,87.5,92.5,92.5,40,45,-47.5,,45,110,115,120,,120,257.5,SBD,Wola Mocy,,
1,Leena Stålstedt,F,Raw,M50,71.2,75,90,-105,105,105,80,90,-95,,90,110,125,130,,130,325,SBD,,,
1,Patryk Ciesielski,M,Raw,J23,59.35,60,125,135,-142.5,135,85,95,-100,,95,180,190,-200,,190,420,SBD,Olsztyn,,
1,Szczepan Duda,M,Raw,J23,70.6,75,200,210,215,215,135,-142.5,142.5,,142.5,235,-245,250,,250,607.5,SBD,DudaGym,,
2,Oskar Kimak,M,Raw,J23,74.25,75,180,190,-200,190,125,130,135,,135,205,215,225,,225,550,SBD,,,
3,Jakub Waligórski,M,Raw,J23,73.15,75,167.5,-175,-175,167.5,112.5,117.5,-122.5,,117.5,-205,210,220,,220,505,SBD,PowerliftingBears Team,,
4,Dawid Pesta,M,Raw,J23,74.65,75,170,180,190,190,115,120,125,,125,190,-200,-200,,190,505,SBD,,,
5,Marcin Werbowy,M,Raw,J23,65.4,75,-130,130,-142.5,130,110,115,-117.5,,115,180,190,-200,,190,435,SBD,,,
1,Kacper Wawrzyniak,M,Raw,J23,89.85,90,235,245,255,255,135,140,145,,145,280,295,305,,305,705,SBD,Wola Mocy,,
2,Miłosz Krzewina,M,Raw,J23,88.5,90,240,252.5,-257.5,252.5,150,-162.5,162.5,,162.5,250,262.5,270,,270,685,SBD,Polish Barbells,,
3,Piotr Marcisz,M,Raw,J23,78.8,82.5,200,210,-215,210,117.5,-125,125,,125,270,287.5,300,,300,635,SBD,Mental Powerlifting Club,,
4,Błażej Bronka,M,Raw,J23,88.7,90,-220,220,230,230,145,-150,-150,,145,240,250,260,,260,635,SBD,,,
5,Mateusz Skierski,M,Raw,J23,82.25,82.5,210,220,225,225,127.5,132.5,135,,135,250,260,-267.5,,260,620,SBD,,,
6,Kamil Dworaczek,M,Raw,J23,87.3,90,197.5,207.5,215,215,125,130,135,,135,250,265,-275,,265,615,SBD,Zacznij Dźwigać,,
7,Patryk Witczak,M,Raw,J23,82.05,82.5,215,222.5,-227.5,222.5,140,145,-150,,145,235,242.5,-247.5,,242.5,610,SBD,,,
8,Andrian Basarab,M,Raw,J23,80.85,82.5,205,-217.5,-220,205,137.5,145,-150,,145,245,252.5,-260,,252.5,602.5,SBD,,,
9,Leszek Kuc,M,Raw,J23,80.5,82.5,210,-220,225,225,130,135,-137.5,,135,230,240,-250,,240,600,SBD,KS Team Wrocław,,
10,Maciej Siwinski,M,Raw,J23,89.75,90,205,212.5,220,220,132.5,137.5,140,,140,240,-250,-250,,240,600,SBD,Powerlifterzy,,
11,Kacper Czechowicz,M,Raw,J23,81.45,82.5,205,212.5,220,220,132.5,-142.5,-142.5,,132.5,235,245,-255,,245,597.5,SBD,Solitary Barbell,,
12,Jakub Mońka,M,Raw,J23,81.9,82.5,200,210,-215,210,140,147.5,-150,,147.5,225,235,-242.5,,235,592.5,SBD,KS Team Wrocław,,
13,Piotr Szewczyk,M,Raw,J23,81.95,82.5,-195,195,205,205,145,152.5,157.5,,157.5,230,-240,-245,,230,592.5,SBD,Wójciklifting Team,,
14,Aleksander Cirocki,M,Raw,J23,88,90,200,210,-222.5,210,140,145,150,,150,220,230,-240,,230,590,SBD,,,
15,Mieszko Bech,M,Raw,J23,88.8,90,187.5,200,-207.5,200,127.5,-132.5,132.5,,132.5,237.5,250,-260,,250,582.5,SBD,Szymgym,,
16,Daniel Szczepaniak,M,Raw,J23,87.8,90,200,215,-225,215,112.5,120,-125,,120,230,240,-250,,240,575,SBD,Targomy Złom,,
17,Mateusz Okuła,M,Raw,J23,80.4,82.5,-200,200,-207.5,200,120,125,130,,130,230,240,-250,,240,570,SBD,Wola Mocy,,
18,Jan Forzpańczyk,M,Raw,J23,87.9,90,-195,195,-205,195,132.5,140,-142.5,,140,215,225,232.5,,232.5,567.5,SBD,A-GAME,,
19,Jakub Laska,M,Raw,J23,83.35,90,190,197.5,,197.5,130,135,-140,,135,230,-240,,,230,562.5,SBD,Daryl Team,,
20,Adrian Rosa,M,Raw,J23,81.45,82.5,180,192.5,-200,192.5,115,120,-125,,120,222.5,240,-250,,240,552.5,SBD,NOMERCY POWERLIFTING,,
21,Michal Zborowski,M,Raw,J23,88.65,90,180,190,-200,190,-125,125,-132.5,,125,210,220,230,,230,545,SBD,,,
22,Jakub Jarczewski,M,Raw,J23,87.95,90,182.5,192.5,-195,192.5,112.5,-117.5,117.5,,117.5,210,225,230,,230,540,SBD,Shadow Lifting,,
23,Eryk Homski,M,Raw,J23,87.35,90,190,200,205,205,120,125,-130,,125,180,200,-210,,200,530,SBD,Legion,,
24,Jakub Janicki,M,Raw,J23,86.9,90,180,190,195,195,115,120,-125,,120,190,202.5,210,,210,525,SBD,CFT Kielce,,
25,Nikodem Rudy,M,Raw,J23,88.1,90,160,170,175,175,107.5,112.5,-120,,112.5,225,235,-242.5,,235,522.5,SBD,MSS Gryf Sanok,,
26,Piotr Fafuła,M,Raw,J23,89.3,90,182.5,-190,-190,182.5,110,-115,115,,115,200,212.5,-222.5,,212.5,510,SBD,Polish Barbells,,
27,Jama Łukasz,M,Raw,J23,79.35,82.5,165,175,-180,175,105,110,-112.5,,110,205,215,-225,,215,500,SBD,Polish Barbells,,
28,Kacper Borowiński,M,Raw,J23,81.65,82.5,-165,165,-170,165,-105,105,110,,110,187.5,-200,-200,,187.5,462.5,SBD,,,
29,Nikodem Suchy,M,Raw,J23,79.7,82.5,140,145,150,150,100,105,-110,,105,190,-200,-205,,190,445,SBD,,,
DQ,Ernest Luczak,M,Raw,J23,80.65,82.5,120,125,130,130,90,-95,95,,95,-160,-160,-160,,,,SBD,,,
1,Bartłomiej Balawender,M,Raw,J23,96.15,100,250,265,,265,195,205,210,,210,260,275,287.5,,287.5,762.5,SBD,Lujpower team,,
2,Michał Czyrek,M,Raw,J23,97.8,100,237.5,250,260,260,147.5,152.5,-157.5,,152.5,285,300,-305,,300,712.5,SBD,PowerliftingBears Team,,
3,Michał Jarek,M,Raw,J23,96.55,100,232.5,242.5,247.5,247.5,122.5,-130,-135,,122.5,295,-305,-305,,295,665,SBD,Garage Barbell Club,,
4,Andrzej Kielbasa,M,Raw,J23,96.7,100,245,255,-260,255,145,-155,-160,,145,240,250,265,,265,665,SBD,,,
5,Michał Kuc,M,Raw,J23,98.65,100,190,200,210,210,155,162.5,170,,170,235,245,255,,255,635,SBD,KS Team Wrocław,,
6,Szymon Bogucki,M,Raw,J23,99.5,100,200,210,220,220,132.5,137.5,-140,,137.5,250,262.5,,,262.5,620,SBD,,,
7,Dominik Zapała,M,Raw,J23,98.55,100,245,-260,-260,245,125,130,-135,,130,230,240,-250,,240,615,SBD,A-GAME,,
8,Jakub Pietrzyk,M,Raw,J23,98.45,100,195,210,220,220,110,-122.5,122.5,,122.5,-200,200,225,,225,567.5,SBD,,,
9,Marcin Zdobych,M,Raw,J23,94.7,100,165,172.5,180,180,115,122.5,-127.5,,122.5,220,230,235,,235,537.5,SBD,,,
10,Michal Urban,M,Raw,J23,94.15,100,170,185,,185,115,125,-135,,125,175,190,-205,,190,500,SBD,,,
11,Bartosz Weber,M,Raw,J23,96.45,100,150,165,175,175,110,120,-130,,120,160,175,190,,190,485,SBD,Wola Mocy,,
12,Norbert Piątkowski,M,Raw,J23,93.75,100,137.5,150,-162.5,150,90,97.5,-105,,97.5,192.5,202.5,212.5,,212.5,460,SBD,Daryl Team,,
13,Konrad Dziedzic,M,Raw,J23,91.85,100,130,-140,-140,130,115,122.5,-127.5,,122.5,165,175,-182.5,,175,427.5,SBD,Wójciklifting Team,,
DQ,Bartosz Schirwing,M,Raw,J23,99.8,100,230,-235,-235,230,135,-137.5,-137.5,,135,-250,-250,,,,,SBD,Kącik Anaboliczny,,
1,Hubert Klimczak,M,Raw,J23,104.8,110,245,-260,260,260,152.5,160,-162.5,,160,265,280,290,,290,710,SBD,PowerliftingBears Team,,
2,Filip Jabłoński,M,Raw,J23,108.5,110,240,-250,-250,240,147.5,155,-160,,155,257.5,265,270,,270,665,SBD,PowerliftingBears Team,,
3,Tobiasz Taurogiński,M,Raw,J23,105.2,110,155,165,170,170,105,110,112.5,,112.5,220,230,-240,,230,512.5,SBD,Polish Barbells,,
DQ,Kamil Kusiek,M,Raw,J23,103,110,270,275,280,280,170,180,182.5,,182.5,-270,-270,-270,,,,SBD,,,
DQ,Mateusz Raj,M,Raw,J23,109.3,110,280,-292.5,-292.5,280,185,-197.5,-200,,185,-242.5,-242.5,-242.5,,,,SBD,Mental Powerlifting Club,,
1,Jakub Stankiewicz,M,Raw,J23,117.8,110+,270,-290,-290,270,170,177.5,-180,,177.5,300,-312.5,-320,,300,747.5,SBD,PowerliftingBears Team,,
2,Patryk Sentyrz,M,Raw,J23,114,110+,230,245,-255,245,140,152.5,160,,160,240,252.5,270,,270,675,SBD,,,
3,Dawid Dawidziuk,M,Raw,J23,127.1,110+,150,200,225,225,145,155,160,,160,240,250,-260,,250,635,SBD,,,
4,Bartłomiej Karczyński,M,Raw,J23,115.2,110+,210,225,230,230,145,-150,-150,,145,230,240,250,,250,625,SBD,Daryl Team,,
1,Patryk Ciesielski,M,Raw,Open,59.35,60,125,135,-142.5,135,85,95,-100,,95,180,190,-200,,190,420,SBD,,,
1,Szczepan Duda,M,Raw,Open,70.6,75,200,210,215,215,135,-142.5,142.5,,142.5,235,-245,250,,250,607.5,SBD,,,
2,Kamil Poręba,M,Raw,Open,74.15,75,200,207.5,212.5,212.5,140,145,-150,,145,200,-215,215,,215,572.5,SBD,,,
3,Rafał Zaremba,M,Raw,Open,74.05,75,180,190,-195,190,140,145,-150,,145,220,-232.5,232.5,,232.5,567.5,SBD,Valhalla Lifters,,
4,Kamil Lewicki,M,Raw,Open,72.2,75,180,-190,190,190,110,117.5,-120,,117.5,230,-250,-250,,230,537.5,SBD,,,
5,Sebastian Pająk,M,Raw,Open,73,75,185,195,-200,195,127.5,132.5,-135,,132.5,195,205,210,,210,537.5,SBD,,,
6,Krystian Mróz,M,Raw,Open,73.3,75,147.5,157.5,165,165,147.5,-155,-155,,147.5,185,195,-202.5,,195,507.5,SBD,Solitary Barbell,,
7,Andrzej Blicharz,M,Raw,Open,74.75,75,150,162.5,175,175,120,130,,,130,182.5,192.5,-200,,192.5,497.5,SBD,Daryl Team,,
8,Daniel Szymański,M,Raw,Open,71.4,75,175,-185,185,185,115,120,-122.5,,120,190,-200,-200,,190,495,SBD,,,
9,Marcin Krysa,M,Raw,Open,71.55,75,140,147.5,152.5,152.5,105,112.5,-115,,112.5,-170,-175,175,,175,440,SBD,,,
10,Mateusz Podkoń,M,Raw,Open,72.55,75,142.5,150,152.5,152.5,90,95,-100,,95,180,-192.5,-192.5,,180,427.5,SBD,Pogon Wschowa,,
11,Michał Konarski,M,Raw,Open,73.7,75,140,145,-150,145,95,102.5,-105,,102.5,162.5,170,175,,175,422.5,SBD,,,
12,Hubert Lawicki,M,Raw,Open,66.8,75,100,110,120,120,60,65,70,,70,130,140,150,,150,340,SBD,CTF Kielce,,
1,Amadeusz Dziemianko,M,Raw,Open,88.35,90,-255,255,-265,255,182.5,190,-195,,190,265,275,-277.5,,275,720,SBD,,,
2,Marcin Kosut,M,Raw,Open,89.5,90,245,252.5,257.5,257.5,165,172.5,-175,,172.5,250,265,272.5,,272.5,702.5,SBD,,,
3,Zelena Máté,M,Raw,Open,89.05,90,220,240,250,250,160,170,-175,,170,280,-300,-300,,280,700,SBD,KS Team Wrocław,,
4,Marek Klose,M,Raw,Open,87.2,90,220,225,230,230,175,182.5,190,,190,260,267.5,-275,,267.5,687.5,SBD,KS Team Wrocław,,
5,Radosław Zarzycki,M,Raw,Open,89.65,90,205,215,-225,215,140,145,-150,,145,305,-320,320,-332.5,320,680,SBD,Daryl Team,,
6,Adrian Kopański,M,Raw,Open,82.15,82.5,235,-245,245,245,137.5,145,150,,150,260,275,-285,,275,670,SBD,Targomy Złom,,
7,Jakub Kowalski,M,Raw,Open,90,90,200,215,-225,215,180,190,-200,,190,240,255,265,,265,670,SBD,NOMERCY POWERLIFTING,,
8,Aleksander Gorol,M,Raw,Open,79.35,82.5,227.5,-237.5,-237.5,227.5,-157.5,160,-167.5,,160,-277.5,277.5,-292.5,,277.5,665,SBD,Mental Powerlifting Club,,
9,Łukasz Ślusarczyk,M,Raw,Open,82.25,82.5,220,235,247.5,247.5,132.5,142.5,-147.5,,142.5,-262.5,-275,275,,275,665,SBD,,,
10,Tomasz Borowczyk,M,Raw,Open,81.3,82.5,200,212.5,222.5,222.5,145,152.5,157.5,,157.5,260,272.5,280,,280,660,SBD,The Lifters,,
11,Tomasz Gromada,M,Raw,Open,81.25,82.5,240,245,-250,245,160,165,-170,,165,247.5,-262.5,-262.5,,247.5,657.5,SBD,Martwi Berserkerzy,,
12,Alex Ross,M,Raw,Open,87.1,90,200,220,230,230,150,170,-175,,170,220,240,250,,250,650,SBD,PowerliftingBears Team,,
13,Dominik Śliwa,M,Raw,Open,89.2,90,180,200,220,220,160,170,180,-188.5,180,210,230,250,,250,650,SBD,Solitary Barbell,,
14,Piotr Marcisz,M,Raw,Open,78.8,82.5,200,210,-215,210,117.5,-125,125,,125,270,287.5,300,,300,635,SBD,The Lifters,,
15,Błażej Bronka,M,Raw,Open,88.7,90,-220,220,230,230,145,-150,-150,,145,240,250,260,,260,635,SBD,Mental Powerlifting Club,,
16,Konrad Mrozowski,M,Raw,Open,86.65,90,220,225,232.5,232.5,135,-140,140,,140,240,250,260,,260,632.5,SBD,,,
17,Dawid Ożga,M,Raw,Open,88.65,90,222.5,235,242.5,242.5,140,147.5,150,,150,230,,,,230,622.5,SBD,,,
18,Mateusz Skierski,M,Raw,Open,82.25,82.5,210,220,225,225,127.5,132.5,135,,135,250,260,-267.5,,260,620,SBD,Garage Barbell Club,,
19,Patryk Witczak,M,Raw,Open,82.05,82.5,215,222.5,-227.5,222.5,140,145,-150,,145,235,242.5,-247.5,,242.5,610,SBD,Wola Mocy,,
20,Andrian Basarab,M,Raw,Open,80.85,82.5,205,-217.5,-220,205,137.5,145,-150,,145,245,252.5,-260,,252.5,602.5,SBD,,,
21,Kacper Czechowicz,M,Raw,Open,81.45,82.5,205,212.5,220,220,132.5,-142.5,-142.5,,132.5,235,245,-255,,245,597.5,SBD,PowerliftingBears Team,,
22,Jakub Mońka,M,Raw,Open,81.9,82.5,200,210,-215,210,140,147.5,-150,,147.5,225,235,-242.5,,235,592.5,SBD,,,
23,Jakub Gorecki,M,Raw,Open,81.95,82.5,185,195,205,205,102.5,107.5,112.5,,112.5,250,260,270,,270,587.5,SBD,PowerliftingBears Team,,
24,Bartosz Laskowski,M,Raw,Open,89,90,-205,205,-220,205,130,135,140,,140,225,240,-250,,240,585,SBD,,,
25,Marek Jaroniec,M,Raw,Open,76.35,82.5,210,-230,230,230,110,120,-130,,120,-210,220,-230,,220,570,SBD,Targomy Złom,,
26,Jakub Laska,M,Raw,Open,83.35,90,190,197.5,,197.5,130,135,-140,,135,230,-240,,,230,562.5,SBD,,,
27,Artur Grudkowski,M,Raw,Open,82.4,82.5,190,195,-200,195,120,125,-130,,125,225,240,-250,,240,560,SBD,KS Team Wrocław,,
28,Mateusz Ronkiewicz,M,Raw,Open,80.3,82.5,170,180,190,190,135,142.5,-147.5,,142.5,200,212.5,220,,220,552.5,SBD,,,
29,Maciej Wieckowski,M,Raw,Open,77.85,82.5,180,190,200,200,115,120,125,,125,215,225,-232.5,,225,550,SBD,,,
30,Dariusz Wakulik,M,Raw,Open,75.95,82.5,150,160,170,170,120,130,135,,135,190,205,220,,220,525,SBD,Power & Muscle,,
31,Konrad Kabata,M,Raw,Open,89,90,180,190,-200,190,122.5,130,137.5,,137.5,180,-200,-200,,180,507.5,SBD,DudaGym,,
32,Łukasz Duda,M,Raw,Open,87.7,90,170,180,185,185,100,105,-110,,105,200,215,-225,,215,505,SBD,,,
33,Szymon Jasica,M,Raw,Open,88.6,90,165,172.5,-180,172.5,130,137.5,142.5,,142.5,190,-205,-207.5,,190,505,SBD,,,
34,Łukasz Jama,M,Raw,Open,79.35,82.5,165,175,-180,175,105,110,-112.5,,110,205,215,-225,,215,500,SBD,,,
35,Kacper Borowiński,M,Raw,Open,81.65,82.5,-165,165,-170,165,-105,105,110,,110,187.5,-200,-200,,187.5,462.5,SBD,,,
36,Mateusz Dittrich,M,Raw,Open,88.8,90,150,160,-167.5,160,107.5,115,-120,,115,185,-200,-200,,185,460,SBD,,,
37,Robert Glanc,M,Raw,Open,77.2,82.5,-160,160,-167.5,160,95,-100,-100,,95,185,-200,-200,,185,440,SBD,Martwi Berserkerzy,,
DQ,Krystian Lisiecki,M,Raw,Open,82,82.5,205,212.5,-220,212.5,142.5,-150,-150,,142.5,-240,-240,-240,,,,SBD,Daryl Team,,
DQ,Arkadiusz Bujalski,M,Raw,Open,88.35,90,-265,265,-270,265,175,182.5,-190,,182.5,-280,-280,-280,,,,SBD,Olsztyn,,
DQ,Dawid Koziel,M,Raw,Open,89.35,90,195,205,-220,205,145,155,165,,165,-230,-230,-230,,,,SBD,A-GAME,,
1,Łukasz Kojder,M,Raw,Open,97.3,100,260,270,-275,270,185,195,202.5,,202.5,305,-313.5,-313.5,,305,777.5,SBD,Kącik Anaboliczny,,
2,Andrzej Stęcel,M,Raw,Open,98.05,100,255,267.5,280,280,195,202.5,-207.5,,202.5,260,272.5,285,,285,767.5,SBD,,,
3,Michał Marciniak,M,Raw,Open,100,100,240,255,265,265,180,190,200,,200,290,300,-313.5,,300,765,SBD,,,
4,Bartłomiej Balawender,M,Raw,Open,96.15,100,250,265,,265,195,205,210,,210,260,275,287.5,,287.5,762.5,SBD,MSS Gryf Sanok,,
5,Mariusz Marszalik,M,Raw,Open,98.4,100,260,277.5,286,286,172.5,182.5,187.5,,187.5,250,265,277.5,,277.5,751,SBD,A-GAME,,
6,Jakub Tempka,M,Raw,Open,98.6,100,235,250,262.5,262.5,-165,165,175,,175,262.5,275,-285,,275,712.5,SBD,,,
7,Krystian Trojanowski,M,Raw,Open,98.15,100,240,250,260,260,130,137.5,-142.5,,137.5,260,272.5,282.5,,282.5,680,SBD,Garage Barbell Club,,
8,Daniel Sadowski,M,Raw,Open,99.7,100,220,230,-240,230,170,177.5,-182.5,,177.5,240,250,260,,260,667.5,SBD,Polish Barbells,,
9,Krzysztof Zając,M,Raw,Open,98.3,100,220,230,235,235,-155,-155,155,,155,255,265,-275,,265,655,SBD,KS Team Wrocław,,
10,Adam Śmigielski,M,Raw,Open,97.45,100,230,240,245,245,145,150,155,,155,220,235,240,,240,640,SBD,PowerliftingBears Team,,
11,Oleksandr Shkutenko,M,Raw,Open,97.65,100,210,222.5,230,230,160,170,-175,,170,220,-230,-230,,220,620,SBD,Wola Mocy,,
12,Hubert Krysa,M,Raw,Open,90.75,100,220,-235,-235,220,140,-150,-150,,140,240,250,-255,,250,610,SBD,PowerliftingBears Team,,
13,Mikołaj Żukow,M,Raw,Open,98.95,100,205,-210,210,210,115,122.5,130,,130,225,242.5,-250,,242.5,582.5,SBD,,,
14,Krzysztof Goliński,M,Raw,Open,91.5,100,180,195,-210,195,140,145,150,,150,225,235,-240,,235,580,SBD,,,
15,Paweł Mikucki,M,Raw,Open,90.5,100,190,202.5,-207.5,202.5,135,142.5,-150,,142.5,215,225,232.5,,232.5,577.5,SBD,Wójciklifting Team,,
16,Mateusz Gawryszewski,M,Raw,Open,90.5,100,195,205,210,210,135,-140,140,,140,205,215,222.5,,222.5,572.5,SBD,Szymgym,,
17,Jan Kleta,M,Raw,Open,95.05,100,180,190,-200,190,130,140,-145,,140,220,240,-250,,240,570,SBD,Polish Barbells,,
18,Tomasz Kaliszewski,M,Raw,Open,95.8,100,185,190,-200,190,112.5,115,-117.5,,115,225,-235,235,,235,540,SBD,Zacznij Dźwigać,,
19,Szymon Gackowski,M,Raw,Open,96,100,170,180,195,195,130,137.5,-147.5,,137.5,190,200,205,,205,537.5,SBD,Polish Barbells,,
20,Mateusz Turek,M,Raw,Open,94.4,100,180,190,-200,190,120,-125,-125,,120,180,190,-200,,190,500,SBD,,,
21,Alan Ochman,M,Raw,Open,97.65,100,220,-232.5,,220,142.5,147.5,-150,,147.5,100,,,,100,467.5,SBD,Legion,,
22,Norbert Piątkowski,M,Raw,Open,93.75,100,137.5,150,-162.5,150,90,97.5,-105,,97.5,192.5,202.5,212.5,,212.5,460,SBD,Targomy Złom,,
23,Kamil Mazur-Czerniecki,M,Raw,Open,98.7,100,-150,150,-160,150,80,87.5,-90,,87.5,200,212.5,-215,,212.5,450,SBD,Wola Mocy,,
24,Konrad Dziedzic,M,Raw,Open,91.85,100,130,-140,-140,130,115,122.5,-127.5,,122.5,165,175,-182.5,,175,427.5,SBD,Powerlifterzy,,
DQ,Rafał Skwarek,M,Raw,Open,99.1,100,260,270,-275,270,160,-170,-170,,160,,,,,,,SBD,,,
1,Paweł Łukomski,M,Raw,Open,108.3,110,305,-320,-320,305,155,-162.5,162.5,,162.5,305,321,335,,335,802.5,SBD,PowerliftingBears Team,,
2,Szymon Pacholek,M,Raw,Open,105.9,110,255,265,275,275,160,170,175,,175,285,-300,-300,,285,735,SBD,PowerliftingBears Team,,
3,Mateusz Szymański,M,Raw,Open,109.7,110,235,245,255,255,155,160,165,,165,-290,300,305,,305,725,SBD,PowerliftingBears Team,,
4,Adrian Masny,M,Raw,Open,108.5,110,240,250,260,260,170,175,-177.5,,175,270,280,285,,285,720,SBD,Daryl Team,,
5,Hubert Woźniak,M,Raw,Open,108.8,110,260,272.5,-280,272.5,152.5,157.5,160,,160,260,270,-280,,270,702.5,SBD,,,
6,Szymon Świtalski,M,Raw,Open,106.6,110,-235,235,245,245,-180,-180,180,,180,-270,270,-285,,270,695,SBD,,,
7,Michał Lech,M,Raw,Open,108.1,110,210,220,230,230,140,150,-155,,150,275,300,-310,,300,680,SBD,Daryl Team,,
8,Michał Podyma,M,Raw,Open,103,110,215,-230,230,230,150,160,170,,170,250,260,270,,270,670,SBD,CFT Kielce,,
9,Patryk Kotkiewicz,M,Raw,Open,107.1,110,190,200,210,210,140,-145,-150,,140,-220,220,235,,235,585,SBD,A-GAME,,
10,Grzegorz Abramowicz,M,Raw,Open,103,110,210,-220,-220,210,115,120,-127.5,,120,230,250,-260,,250,580,SBD,,,
11,Łukasz Kulczyński,M,Raw,Open,107.9,110,200,207.5,-212.5,207.5,127.5,-132.5,132.5,,132.5,225,240,-250,,240,580,SBD,Lujpower team,,
12,Artur Wodecki,M,Raw,Open,108.9,110,187.5,200,207.5,207.5,115,125,-130,,125,210,220,230,,230,562.5,SBD,,,
13,Lukasz Sobczak,M,Raw,Open,108.9,110,180,190,-200,190,100,110,117.5,,117.5,180,190,200,,200,507.5,SBD,,,
14,Dominik Pietrykowski,M,Raw,Open,104.8,110,170,185,-195,185,112.5,-125,-125,,112.5,200,-215,-230,,200,497.5,SBD,Mental Powerlifting Club,,
15,Filip Pianowski,M,Raw,Open,105.2,110,155,165,170,170,85,92.5,-97.5,,92.5,195,202.5,207.5,,207.5,470,SBD,Shadow Lifting,,
DQ,Kamil Kusiek,M,Raw,Open,103,110,270,275,280,280,170,180,182.5,,182.5,-270,-270,-270,,,,SBD,Polish Barbells,,
DQ,Rafał Izdebski,M,Raw,Open,104,110,240,260,-270,260,-160,165,170,,170,-280,-280,-280,,,,SBD,Wola Mocy,,
1,Bartosz Wysocki,M,Raw,Open,143.4,110+,300,-320,-320,300,-225,230,-240,,230,310,320,325,,325,855,SBD,,,
2,Szymon Obrochta,M,Raw,Open,115,110+,240,260,270,270,200,210,215,,215,290,310,-315,,310,795,SBD,,,
3,Arkadiusz Reszczyński,M,Raw,Open,123,110+,280,300,,300,180,-190,190,,190,290,300,-310,,300,790,SBD,,,
4,Artur Solka,M,Raw,Open,118.1,110+,295,-305,305,305,185,-190,-190,,185,270,-280,-280,,270,760,SBD,,,
5,Tomasz Kolbusz,M,Raw,Open,116.6,110+,240,255,,255,170,177.5,182.5,,182.5,290,-305,310,,310,747.5,SBD,,,
6,Jakub Stankiewicz,M,Raw,Open,117.8,110+,270,-290,-290,270,170,177.5,-180,,177.5,300,-312.5,-320,,300,747.5,SBD,,,
7,Michał Lebioda,M,Raw,Open,119.6,110+,270,280,290,290,165,172.5,-180,,172.5,277.5,285,-290,,285,747.5,SBD,Wójciklifting Team,,
8,Arkadiusz Jasiński,M,Raw,Open,135,110+,270,-282.5,-282.5,270,180,190,200,,200,260,275,-285,,275,745,SBD,,,
9,Patryk Naumowicz,M,Raw,Open,115.5,110+,260,270,280,280,192.5,-200,-200,,192.5,245,255,265,,265,737.5,SBD,,,
10,Krystian Tatara,M,Raw,Open,119.9,110+,250,262.5,-270,262.5,170,175,-180,,175,277.5,285,-290,,285,722.5,SBD,,,
11,Szymon Stawiarski,M,Raw,Open,121.8,110+,230,245,255,255,190,195,200,,200,250,260,-270,,260,715,SBD,,,
12,Dominik Spałek,M,Raw,Open,117.1,110+,190,202.5,210,210,165,172.5,177.5,,177.5,250,265,272.5,,272.5,660,SBD,,,
13,Jędrzej Żukowski,M,Raw,Open,120.2,110+,325,-350,-350,325,195,202.5,,,202.5,125,,,,125,652.5,SBD,Farma Lifterów Wojny,,
14,Piotr Żyto,M,Raw,Open,168.5,110+,220,-240,-240,220,140,150,-160,,150,230,245,-255,,245,615,SBD,,,
15,Szymon Szymura,M,Raw,Open,115.2,110+,-210,-210,210,210,140,145,150,,150,220,230,237.5,,237.5,597.5,SBD,,,
16,Mateusz Rytelewski,M,Raw,Open,124,110+,200,212.5,225,225,150,-160,-160,,150,-220,220,-230,,220,595,SBD,,,
17,Grzegorz Ręka,M,Raw,Open,119.4,110+,195,200,205,205,140,145,150,,150,205,212.5,-220,,212.5,567.5,SBD,,,
18,Jakub Graczyk,M,Raw,Open,116.3,110+,-235,235,-250,235,140,150,-155,,150,75,,,,75,460,SBD,,,
1,Pawel Wohlert,M,Raw,M40,73.8,75,-100,-100,100,100,65,-72.5,-72.5,,65,115,120,125,,125,290,SBD,Kotłownia,,
1,Przemyslaw Gajos,M,Raw,M40,88.2,90,185,192.5,200,200,145,152.5,160,,160,205,212.5,220,,220,580,SBD,KS Team Wrocław,,
2,Marek Gott,M,Raw,M40,81,82.5,162.5,172.5,-180,172.5,142.5,147.5,-152.5,,147.5,175,185,192.5,,192.5,512.5,SBD,PowerliftingBears Team,,
3,Jerzy Dajka,M,Raw,M40,79.8,82.5,160,165,170,170,100,105,110,,110,180,190,-200,,190,470,SBD,MKS Ustroń,,
1,Kamil Mazur-Czerniecki,M,Raw,M40,98.7,100,-150,150,-160,150,80,87.5,-90,,87.5,200,212.5,-215,,212.5,450,SBD,,,
1,Michał Podyma,M,Raw,M40,103,110,215,-230,230,230,150,160,170,,170,250,260,270,,270,670,SBD,Metroflex,,
1,Robert Mistal,M,Raw,M50,73.7,75,110,115,120,120,80,-90,-90,,80,140,147.5,155,,155,355,SBD,A-GAME,,
1,Marek Jaroniec,M,Raw,M50,76.35,82.5,210,-230,230,230,110,120,-130,,120,-210,220,-230,,220,570,SBD,Port Siły,,
1,Mieczysłąw Maczka,M,Raw,M60,81.7,82.5,120,137.5,145,145,95,100,105,,105,135,152.5,157.5,,157.5,407.5,SBD,Powerlifting Maczka Team,,
1,Patryk Witczak,M,Raw,MPF,82.05,82.5,215,222.5,-227.5,222.5,140,145,-150,,145,235,242.5,-247.5,,242.5,610,SBD,,,
2,Patryk Witczak,M,Raw,MPF,82.05,82.5,215,222.5,-227.5,222.5,140,145,-150,,145,235,242.5,-247.5,,242.5,610,SBD,Wola Mocy,,
3,Szymon Jasica,M,Raw,MPF,88.6,90,165,172.5,-180,172.5,130,137.5,142.5,,142.5,190,-205,-207.5,,190,505,SBD,,,
4,Mieczysłąw Maczka,M,Raw,MPF,81.7,82.5,120,137.5,145,145,95,100,105,,105,135,152.5,157.5,,157.5,407.5,SBD,Powerlifting Maczka Team,,
DQ,Dawid Koziel,M,Raw,MPF,89.35,90,195,205,-220,205,145,155,165,,165,-230,-230,-230,,,,SBD,A-GAME,,
1,Łukasz Kojder,M,Raw,MPF,97.3,100,260,270,-275,270,185,195,202.5,,202.5,305,-313.5,-313.5,,305,777.5,SBD,Kącik Anaboliczny,,
1,Jakub Opalka,M,Raw,T16,73.55,75,165,-180,180,180,95,100,-105,,100,-185,190,200,-207.5,200,480,SBD,,2007-07-18,
2,Bartłomiej Ścibisz,M,Raw,T16,74.2,75,150,160,167.5,167.5,97.5,105,-107.5,,105,175,185,-200,,185,457.5,SBD,KS Team Wrocław,,
3,Michal Lugowski,M,Raw,T16,73.6,75,-160,160,-167.5,160,92.5,97.5,-100,,97.5,182.5,-190,-192.5,,182.5,440,SBD,,,
4,Tobiasz Mizera,M,Raw,T16,75,75,155,165,-170,165,77.5,85,-90,,85,135,142.5,150,,150,400,SBD,KS Team Wrocław,,
5,Franciszek Plociennik,M,Raw,T16,64.4,75,132.5,142.5,147.5,147.5,85,-92.5,-92.5,,85,140,150,-157.5,,150,382.5,SBD,,,
6,Hubert Lawicki,M,Raw,T16,66.8,75,100,110,120,120,60,65,-70,,65,130,140,150,,150,335,SBD,Studio Sylwetki Kwidzyn,,
7,Adrian Mroczek,M,Raw,T16,74.4,75,115,125,130,130,65,-67.5,-67.5,,65,125,135,140,,140,335,SBD,Wredoty Jaroty,,
1,Bartosz Musiol,M,Raw,T16,80.85,82.5,130,-140,145,145,102.5,110,115,,115,155,167.5,180,,180,440,SBD,Mental Powerlifting Club,2006-12-27,
2,Nikodem Steczko,M,Raw,T16,81.5,82.5,-140,140,-145,140,85,92.5,95,,95,-195,200,-210,,200,435,SBD,Valhalla Lifters,,
3,Tomasz Wilk,M,Raw,T16,79.85,82.5,130,137.5,140,140,80,-85,87.5,,87.5,190,200,-210,,200,427.5,SBD,Valhalla Lifters,,
4,Daniel Akulicz,M,Raw,T16,80.7,82.5,130,142.5,-147.5,142.5,90,97.5,102.5,,102.5,155,165,-170,,165,410,SBD,Valhalla Lifters,,
5,Hubert Biedrzycki,M,Raw,T16,78.8,82.5,115,122.5,-130,122.5,70,75,-80,,75,120,130,142.5,,142.5,340,SBD,,,
1,Jan Tochowicz,M,Raw,T19,59.35,60,115,125,132.5,132.5,-87.5,92.5,-95,,92.5,140,150,157.5,,157.5,382.5,SBD,,,
1,Sebastian Pająk,M,Raw,T19,73,75,185,195,-200,195,127.5,132.5,-135,,132.5,195,205,210,,210,537.5,SBD,Solitary Barbell,,
2,Goór Kristóf,M,Raw,T19,74.5,75,165,175,-180,175,140,147.5,150,,150,190,200,205,,205,530,SBD,,,
3,Szymon Plech,M,Raw,T19,74.3,75,170,180,-187.5,180,105,110,115,,115,170,185,195,,195,490,SBD,CTF Kielce,,
4,Marcel Kot,M,Raw,T19,67.15,75,145,150,155,155,107.5,112.5,117.5,,117.5,200,-210,-210,,200,472.5,SBD,,,
1,Dawid Bieńko,M,Raw,T19,87.05,90,230,240,250,250,142.5,-147.5,150,,150,235,245,250,-273.5,250,650,SBD,KS Team Wrocław,,
2,Marcin Gardian,M,Raw,T19,87.55,90,215,225,232.5,232.5,110,117.5,120,,120,-260,272.5,-300,,272.5,625,SBD,Targomy Złom,,
3,Jakub Gorecki,M,Raw,T19,81.95,82.5,185,195,205,205,102.5,107.5,112.5,,112.5,250,260,270,-283.5,270,587.5,SBD,Martwi Berserkerzy,,
4,Ireneusz Grzegorzewski,M,Raw,T19,79.05,82.5,190,200,210,210,122.5,130,137.5,,137.5,-220,-220,220,,220,567.5,SBD,,,
5,Paweł Bujara,M,Raw,T19,81.1,82.5,187.5,202.5,-211,202.5,102.5,110,112.5,,112.5,225,247.5,-272.5,,247.5,562.5,SBD,Mental Powerlifting Club,,
6,Filip Szczyrbowski,M,Raw,T19,86.4,90,190,202.5,-210,202.5,102.5,110,-115,,110,220,235,-242.5,,235,547.5,SBD,The Lifters,,
7,Kacper Bień,M,Raw,T19,89.6,90,175,185,-195,185,105,110,117.5,,117.5,210,225,235,,235,537.5,SBD,Martwi Berserkerzy,,
8,Nikodem Kuczborski,M,Raw,T19,79.75,82.5,185,192.5,-197.5,192.5,130,-140,-140,,130,190,,,,190,512.5,SBD,,,
9,Jakub Suślik,M,Raw,T19,90,90,170,177.5,-185,177.5,110,117.5,-122.5,,117.5,200,210,-222.5,,210,505,SBD,,,
10,Jakub Kosiba,M,Raw,T19,87.4,90,170,-180,-185,170,120,127.5,-130,,127.5,180,190,202.5,,202.5,500,SBD,,,
11,Bartek Umiński,M,Raw,T19,88.05,90,180,-190,-190,180,105,110,-112.5,,110,200,-212.5,-212.5,,200,490,SBD,,,
12,Kacper Skawinski,M,Raw,T19,81.2,82.5,160,-170,170,170,125,132.5,-137.5,,132.5,175,-185,185,,185,487.5,SBD,The Lifters,,
13,Ksawery Perek,M,Raw,T19,85.35,90,155,165,170,170,97.5,105,-110,,105,200,210,-215,,210,485,SBD,PowerliftingBears Team,,
14,Arkadiusz Krystynus,M,Raw,T19,80.3,82.5,150,-155,155,155,-100,105,112.5,,112.5,170,185,195,,195,462.5,SBD,,,
15,Jacek Giernalczyk,M,Raw,T19,82.85,90,160,170,175,175,75,80,-85,,80,170,185,200,,200,455,SBD,Daryl Team,,
16,Filip Kaczmarzewski,M,Raw,T19,76.3,82.5,140,150,-160,150,90,100,-105,,100,190,202.5,-212.5,,202.5,452.5,SBD,Pogon Wschowa,,
17,Maciej Malarczyk,M,Raw,T19,77.7,82.5,150,160,167.5,167.5,95,-102.5,-105,,95,180,190,-200,,190,452.5,SBD,Valhalla Lifters,,
18,Paweł Nowak #2,M,Raw,T19,82.3,82.5,135,145,-155,145,100,-107.5,-107.5,,100,160,180,200,,200,445,SBD,,,19
19,Marcin Kołodziej,M,Raw,T19,75.45,82.5,140,150,165,165,-100,100,-112.5,,100,160,170,175,,175,440,SBD,,,
1,Hubert Krysa,M,Raw,T19,90.75,100,220,-235,-235,220,140,-150,-150,,140,240,250,-255,,250,610,SBD,,,
2,Zięcina Michał,M,Raw,T19,97.7,100,220,230,-235,230,-125,130,135,,135,210,225,235,,235,600,SBD,,,
3,Adam Serwatyński,M,Raw,T19,94.95,100,195,202.5,210,210,120,125,-130,,125,220,230,240,,240,575,SBD,Power & Muscle,,
4,Adam Gawlikowski,M,Raw,T19,96.5,100,190,205,-210,205,110,115,120,,120,210,220,230,,230,555,SBD,Garage Barbell Club,,
5,Kacper Plebanek,M,Raw,T19,96.55,100,190,205,210,210,117.5,-125,125,,125,200,220,-232.5,,220,555,SBD,,,
6,Maciej Owczarek,M,Raw,T19,98.2,100,-200,205,215,215,-135,140,-157.5,,140,-190,190,-230,,190,545,SBD,,,
7,Szymon Halerz,M,Raw,T19,98.95,100,170,-185,-185,170,115,-120,-120,,115,200,230,-250,,230,515,SBD,Wola Mocy,,
8,Fabian Karapulka,M,Raw,T19,98.45,100,-150,160,175,175,90,97.5,-102.5,,97.5,215,-227.5,-227.5,,215,487.5,SBD,Targomy Złom,,
1,Hubert Staniszewski,M,Raw,T19,107.8,110,232.5,-240,240,240,150,155,-157.5,,155,240,-247.5,247.5,,247.5,642.5,SBD,PowerliftingBears Team,,
2,Nikodem Hapka,M,Raw,T19,104,110,190,200,-207.5,200,132.5,140,147.5,,147.5,-237.5,-252.5,252.5,,252.5,600,SBD,PowerliftingBears Team,,
3,Filip Pianowski,M,Raw,T19,105.2,110,155,165,170,170,85,92.5,-97.5,,92.5,195,202.5,207.5,,207.5,470,SBD,,,
4,Mateusz Kruszyński,M,Raw,T19,106.3,110,140,150,160,160,100,105,-107.5,,105,175,-182.5,182.5,,182.5,447.5,SBD,Daryl Team,,
