Division,WeightClassKg,Place,Name,Team,BodyweightKg,Best3SquatKg,Best3BenchKg,Best3DeadliftKg,TotalKg,Equipment,Event,Sex
Boys,51.71,1,Christian Pena,Benavides,51.17,140.61,88.45,140.61,369.68,Single-ply,SBD,M
Boys,51.71,2,Miguel Gonzalez #2,Alice,47.81,138.35,52.16,120.2,310.71,Single-ply,SBD,M
Boys,51.71,3,Derek Guajardo,Benavides,44.54,95.25,52.16,104.33,251.74,Single-ply,SBD,M
Boys,55.79,1,Chris Trevino,San Diego,55.07,151.95,102.06,167.83,421.84,Single-ply,SBD,M
Boys,55.79,2,Robbie Montemayor,Taft,54.25,138.35,88.45,170.1,396.89,Single-ply,SBD,M
Boys,55.79,3,Christian Perez,Gregory-Portland,55.52,104.33,63.5,124.74,292.57,Single-ply,SBD,M
Boys,55.79,4,Sergio Benavente,Benavides,52.71,92.99,61.23,117.93,272.16,Single-ply,SBD,M
Boys,59.87,1,Lucas Lara,Mathis,59.06,176.9,106.59,204.12,487.61,Single-ply,SBD,M
Boys,59.87,2,AJ Perez,Ben Bolt-Palito Blanco,57.42,183.7,124.74,158.76,467.2,Single-ply,SBD,M
Boys,59.87,3,Dominic Sanchez,Mathis,59.24,142.88,106.59,145.15,394.63,Single-ply,SBD,M
Boys,59.87,4,Gabriel Herrera,Mathis,57.24,124.74,72.57,158.76,356.07,Single-ply,SBD,M
Boys,59.87,5,Jose Cantu,Benavides,58.69,122.47,61.23,158.76,342.46,Single-ply,SBD,M
Boys,59.87,DQ,Conrad Horst,Gregory-Portland,57.15,117.93,,,,Single-ply,SBD,M
Boys,59.87,DQ,Damian Diaz,Hebbronville,59.87,176.9,79.38,,,Single-ply,SBD,M
Boys,67.13,1,Anthony Perez,San Diego,67.13,290.3,172.37,242.67,705.34,Single-ply,SBD,M
Boys,67.13,2,Andrew Garcia,Mathis,65.5,197.31,115.67,215.46,528.44,Single-ply,SBD,M
Boys,67.13,3,Ramiro DeLeon,Mathis,67.13,167.83,102.06,172.37,442.25,Single-ply,SBD,M
Boys,67.13,4,Jose Saenz,San Diego,67.13,156.49,108.86,172.37,437.72,Single-ply,SBD,M
Boys,67.13,5,Kade Baker,Gregory-Portland,64.86,156.49,117.93,154.22,428.64,Single-ply,SBD,M
Boys,67.13,6,Ryan Fransham,Orange Grove,66.32,170.1,86.18,167.83,424.11,Single-ply,SBD,M
Boys,67.13,7,Andres Garza,San Diego,64.95,147.42,97.52,142.88,387.82,Single-ply,SBD,M
Boys,67.13,8,Rolando Ramos,Hebbronville,62.23,138.35,79.38,142.88,360.61,Single-ply,SBD,M
Boys,67.13,9,Ethan Vasquez,Alice,61.87,131.54,74.84,133.81,340.19,Single-ply,SBD,M
Boys,67.13,10,Jay Gutierrez #2,Corpus Christi Tuloso-Midway,64.86,106.59,70.31,158.76,335.66,Single-ply,SBD,M
Boys,67.13,11,CJ Tanguma,Mathis,63.32,124.74,70.31,127.01,322.05,Single-ply,SBD,M
Boys,67.13,12,Nathaniel Hill,Gregory-Portland,60.33,127.01,61.23,131.54,319.78,Single-ply,SBD,M
Boys,67.13,13,Ozzie Williams,Benavides,63.5,83.91,61.23,151.95,297.1,Single-ply,SBD,M
Boys,67.13,14,Dylan Delly,Beeville Jones,64.77,92.99,61.23,133.81,288.03,Single-ply,SBD,M
Boys,67.13,15,Fabian Fraga,Benavides,61.87,92.99,54.43,92.99,240.4,Single-ply,SBD,M
Boys,67.13,DQ,Jesus Gonzalez,Benavides,63.5,,,,,Single-ply,SBD,M
Boys,67.13,DQ,Austin Mendez,San Diego,60.87,151.95,97.52,,,Single-ply,SBD,M
Boys,67.13,DQ,Luis Torres,Mathis,64.95,102.06,,,,Single-ply,SBD,M
Boys,74.84,1,Lee Bazan,San Diego,74.66,272.16,149.69,231.33,653.17,Single-ply,SBD,M
Boys,74.84,2,Chiso Nwampka,Corpus Christi Tuloso-Midway,74.66,185.97,117.93,210.92,514.83,Single-ply,SBD,M
Boys,74.84,3,Denis Dielski,Beeville Jones,72.76,170.1,111.13,199.58,480.81,Single-ply,SBD,M
Boys,74.84,4,Joseph Dominguez,Taft,72.57,170.1,99.79,208.65,478.54,Single-ply,SBD,M
Boys,74.84,5,Aaron Champion,Mathis,73.66,174.63,115.67,183.7,474,Single-ply,SBD,M
Boys,74.84,6,Zach Graves,Taft,73.66,161.03,111.13,188.24,460.4,Single-ply,SBD,M
Boys,74.84,7,Marshall Tetens,Gregory-Portland,67.59,172.37,97.52,172.37,442.25,Single-ply,SBD,M
Boys,74.84,8,Carlos Gonzales,Mathis,73.03,161.03,108.86,165.56,435.45,Single-ply,SBD,M
Boys,74.84,9,Juan Rodriguez,Mathis,74.39,174.63,124.74,136.08,435.45,Single-ply,SBD,M
Boys,74.84,10,Philip Sullivan,Corpus Christi Tuloso-Midway,74.75,161.03,83.91,165.56,410.5,Single-ply,SBD,M
Boys,74.84,11,Nico Perez,Benavides,68.58,151.95,90.72,163.29,405.97,Single-ply,SBD,M
Boys,74.84,12,Roy Zepeda,Corpus Christi Tuloso-Midway,73.84,136.08,92.99,174.63,403.7,Single-ply,SBD,M
Boys,74.84,13,Leo Gutierrez,Gregory-Portland,73.3,156.49,72.57,158.76,387.82,Single-ply,SBD,M
Boys,74.84,14,Jarran Carillo,Three Rivers,74.3,127.01,72.57,147.42,347,Single-ply,SBD,M
Boys,74.84,15,Cameron Bonnequ,Gregory-Portland,73.21,129.27,61.23,149.69,340.19,Single-ply,SBD,M
Boys,74.84,DQ,Philip Gutierrez,Beeville Jones,71.49,179.17,99.79,,,Single-ply,SBD,M
Boys,82.1,1,Oscar Salazar,Hebbronville,82.1,233.6,172.37,217.72,623.69,Single-ply,SBD,M
Boys,82.1,2,Jeron Adams,San Diego,82.1,197.31,106.59,170.1,474,Single-ply,SBD,M
Boys,82.1,3,Nick Lazo,Corpus Christi Tuloso-Midway,81.01,165.56,108.86,183.7,458.13,Single-ply,SBD,M
Boys,82.1,4,Kenneth Guerra,Benavides,78.29,183.7,81.65,183.7,449.06,Single-ply,SBD,M
Boys,82.1,5,Isaiah Chaverra,Hebbronville,79.11,145.15,106.59,161.03,412.77,Single-ply,SBD,M
Boys,82.1,6,TJ Salazar,Corpus Christi Tuloso-Midway,78.93,151.95,77.11,167.83,396.89,Single-ply,SBD,M
Boys,82.1,7,Gavin Gonzalez,Corpus Christi Tuloso-Midway,75.48,158.76,74.84,138.35,371.95,Single-ply,SBD,M
Boys,82.1,8,Taylor Stockton,Three Rivers,80.2,140.61,83.91,140.61,365.14,Single-ply,SBD,M
Boys,82.1,9,Pablo Fernandez,Alice,82.01,127.01,72.57,161.03,360.61,Single-ply,SBD,M
Boys,82.1,10,Dillion Childress,Gregory-Portland,78.74,124.74,79.38,142.88,347,Single-ply,SBD,M
Boys,82.1,DQ,Rey Peralez,Benavides,79.65,142.88,88.45,,,Single-ply,SBD,M
Boys,89.81,1,Joseph Araujo,San Diego,86.82,238.14,149.69,247.21,635.03,Single-ply,SBD,M
Boys,89.81,2,Marcus Cerda,Taft,88.36,222.26,138.35,217.72,578.33,Single-ply,SBD,M
Boys,89.81,3,Noah Rowe,Gregory-Portland,87.36,222.26,117.93,231.33,571.53,Single-ply,SBD,M
Boys,89.81,4,Devin Palacios,Beeville Jones,85.09,190.51,127.01,195.04,512.56,Single-ply,SBD,M
Boys,89.81,5,Marcos Gonzalez,Ben Bolt-Palito Blanco,89.72,192.78,124.74,192.78,510.29,Single-ply,SBD,M
Boys,89.81,6,Toby Medina,Mathis,89.81,188.24,104.33,185.97,478.54,Single-ply,SBD,M
Boys,89.81,7,Marcus Gutierrez,Beeville Jones,85.82,170.1,92.99,172.37,435.45,Single-ply,SBD,M
Boys,89.81,8,Alex Diaz #3,Three Rivers,83.37,167.83,95.25,163.29,426.38,Single-ply,SBD,M
Boys,89.81,9,Gage Gomez,Gregory-Portland,89.36,149.69,92.99,172.37,415.04,Single-ply,SBD,M
Boys,89.81,10,Cory Poole,Beeville Jones,87.54,131.54,92.99,158.76,383.29,Single-ply,SBD,M
Boys,89.81,11,Dante DeLeon,Mathis,89.72,161.03,74.84,142.88,378.75,Single-ply,SBD,M
Boys,89.81,12,Jason Drummond,Gregory-Portland,82.64,129.27,65.77,156.49,351.53,Single-ply,SBD,M
Boys,99.79,1,Ryan Rasbury,Mathis,98.61,249.48,131.54,244.94,625.96,Single-ply,SBD,M
Boys,99.79,2,Dante Vasquez,Corpus Christi Tuloso-Midway,93.44,254.01,156.49,206.38,616.89,Single-ply,SBD,M
Boys,99.79,3,Tristian Perez,Ben Bolt-Palito Blanco,91.08,256.28,151.95,192.78,601.01,Single-ply,SBD,M
Boys,99.79,4,Jake Arroyos,Beeville Jones,97.61,226.8,124.74,204.12,555.65,Single-ply,SBD,M
Boys,99.79,5,Michael Barajas,Mathis,90.54,217.72,108.86,192.78,519.36,Single-ply,SBD,M
Boys,99.79,6,Mike Esquivel,Taft,92.17,183.7,120.2,199.58,503.49,Single-ply,SBD,M
Boys,99.79,7,Paul Trevino,Taft,93.08,208.65,115.67,170.1,494.42,Single-ply,SBD,M
Boys,99.79,8,Issac Martinez,Corpus Christi Tuloso-Midway,97.61,206.38,124.74,161.03,492.15,Single-ply,SBD,M
Boys,99.79,9,Zavien Anthony,Mathis,98.52,185.97,129.27,158.76,474,Single-ply,SBD,M
Boys,99.79,10,Peyton Raslany,Mathis,98.61,149.69,79.38,151.95,381.02,Single-ply,SBD,M
Boys,99.79,11,Josiah Gonzales,Hebbronville,97.52,129.27,72.57,136.08,337.93,Single-ply,SBD,M
Boys,99.79,12,Aidan Wilde,Alice,97.7,113.4,70.31,142.88,326.59,Single-ply,SBD,M
Boys,99.79,DQ,Alejandro Gómez,Hebbronville,92.71,,,,,Single-ply,SBD,M
Boys,109.77,1,Juan Cortez,Alice,109.41,208.65,122.47,226.8,557.92,Single-ply,SBD,M
Boys,109.77,2,Darriel Gonzalez,Hebbronville,107.5,226.8,129.27,192.78,548.85,Single-ply,SBD,M
Boys,109.77,3,Lance Lopez,Orange Grove,108.68,226.8,115.67,197.31,539.77,Single-ply,SBD,M
Boys,109.77,4,Mason Pena,Ben Bolt-Palito Blanco,107.5,204.12,129.27,201.85,535.24,Single-ply,SBD,M
Boys,109.77,5,Andrew Zuniga,Three Rivers,106.68,181.44,122.47,181.44,485.34,Single-ply,SBD,M
Boys,109.77,6,Javier Jasso,Corpus Christi London,101.6,154.22,111.13,142.88,408.23,Single-ply,SBD,M
Boys,109.77,7,Nickk Gutierrez,Mathis,101.88,147.42,92.99,156.49,396.89,Single-ply,SBD,M
Boys,109.77,DQ,Mason Charo,Orange Grove,109.77,,,,,Single-ply,SBD,M
Boys,124.74,1,Michael Salaiz,San Diego,117.03,306.17,199.58,274.42,780.18,Single-ply,SBD,M
Boys,124.74,2,Jaime Gonzales,Taft,116.21,249.48,151.95,238.14,639.57,Single-ply,SBD,M
Boys,124.74,3,Diego Gutierrez,Mathis,121.11,206.38,129.27,195.04,530.7,Single-ply,SBD,M
Boys,124.74,4,Pete Dominguez,Hebbronville,117.48,181.44,111.13,197.31,489.88,Single-ply,SBD,M
Boys,124.74,5,Keoki Bray,Three Rivers,122.92,111.13,61.23,120.2,292.57,Single-ply,SBD,M
Boys,124.74,DQ,Aaron Griffin,Corpus Christi Tuloso-Midway,114.76,,,,,Single-ply,SBD,M
Boys,124.74+,1,Will Atwood,Orange Grove,154.58,226.8,138.35,235.87,601.01,Single-ply,SBD,M
Boys,124.74+,2,Ademar Garcia,Hebbronville,135.17,204.12,104.33,183.7,492.15,Single-ply,SBD,M
